Capítulo 23 Extrayendo información: estadística descriptiva con cualitativas | Analizando datos, visualizando información, contando historias
…
El uso primigenio de la estadística, y de donde deriva etimológicamente la palabra, es el estudio y organización del Estado, por lo que muchos términos hacen referencia a dicho origen. Vamos a introducir algunos términos usando como ejemplo el conjunto que ya conocemos de starwars, en el que tenemos datos de 87 personajes.

Población: el conjunto o colección de individuos a estudiar (por ejemplo, los cientos de miles de habitantes de los mundos de Star Wars). En general llamaremos población al conjunto de posibles elementos o eventos de los que podríamos tener observaciones. El problema es que esa población normalmente es inaccesible su totalidad (en el caso de obtener estadísticas de la estatura de toda la población española, sería inviable medir a los 47 millones de habitantes).

Individuo: cada uno de los elementos sobre los que vamos a medir una característica (normalmente las filas de una tabla)

Muestra: una selección «representativa» de la población total (teórica). En nuestro caso, de los miles de habitantes de los mundos de Star Wars hemos extraído una muestra de 87 personas. La rama de la estadística que se encarga del estudio de cómo obtener esas muestras, en función del objetivo que se tenga, se conoce como muestreo.

library(tidyverse)

# Nuestra muestra
starwars

## # A tibble: 87 × 14
##    name    height  mass hair_color  skin_color eye_color birth_year sex   gender
##    <chr>    <int> <dbl> <chr>       <chr>      <chr>          <dbl> <chr> <chr> 
##  1 Luke S…    172    77 blond       fair       blue            19   male  mascu…
##  2 C-3PO      167    75 <NA>        gold       yellow         112   none  mascu…
##  3 R2-D2       96    32 <NA>        white, bl… red             33   none  mascu…
##  4 Darth …    202   136 none        white      yellow          41.9 male  mascu…
##  5 Leia O…    150    49 brown       light      brown           19   fema… femin…
##  6 Owen L…    178   120 brown, grey light      blue            52   male  mascu…
##  7 Beru W…    165    75 brown       light      blue            47   fema… femin…
##  8 R5-D4       97    32 <NA>        white, red red             NA   none  mascu…
##  9 Biggs …    183    84 black       light      brown           24   male  mascu…
## 10 Obi-Wa…    182    77 auburn, wh… fair       blue-gray       57   male  mascu…
## # … with 77 more rows, and 5 more variables: homeworld <chr>, species <chr>,
## #   films <list>, vehicles <list>, starships <list>
…
##  [1] Other Other sano  sano  sano  Other Other Other Other sano  sano 
## Levels: sano Other

fct_lump_min(estado_fct, min = 5, other_level = "otros")

##  [1] otros otros sano  sano  sano  otros otros otros otros sano  sano 
## Levels: sano otros

Como ya hemos usado (y veremos en detalle un poco más adelante), con count() también podemos los valores de una variable asociados a cada modalidad. Por ejemplo, vamos a calcular la cantidad de personajes de cada especie (filtrando los ausentes).

starwars %>%
  filter(!is.na(species)) %>%
  count(species)

## # A tibble: 37 × 2
##    species       n
##    <chr>     <int>
##  1 Aleena        1
##  2 Besalisk      1
##  3 Cerean        1
##  4 Chagrian      1
##  5 Clawdite      1
##  6 Droid         6
##  7 Dug           1
##  8 Ewok          1
##  9 Geonosian     1
## 10 Gungan        3
## # … with 27 more rows
…
Con el paquete DT se pueden visualizar tablas en documentos .Rmd

¿Cuál es el color de pelo que más aparece en starwars?

Vamos a construir su tabla de frecuencias, primero conviertiendo hair_color a factor y viendo los niveles de dicha variable, y quedándonos solo con la variables name y hair_color. Además los niveles ausentes los vamos a convertir a "none", nivel que ya existe, con fct_explicit_na()

starwars_hair <-
  starwars %>%
  mutate(hair_color = fct_explicit_na(hair_color, na_level = "none")) %>%
  select(c(name, hair_color))
starwars_hair

## # A tibble: 87 × 2
##    name               hair_color   
##    <chr>              <fct>        
##  1 Luke Skywalker     blond        
##  2 C-3PO              none         
##  3 R2-D2              none         
##  4 Darth Vader        none         
##  5 Leia Organa        brown        
##  6 Owen Lars          brown, grey  
##  7 Beru Whitesun lars brown        
##  8 R5-D4              none         
##  9 Biggs Darklighter  black        
## 10 Obi-Wan Kenobi     auburn, white
## # … with 77 more rows
…
Vamos a filtrar solo los resultados de Rusia del 2016

rusia <- election_data %>%
  filter(country == "Russia" & year == 2016)

Con la función parliament_data construiremos los datos, preparados para ser visualizados en formato hemiciclo (con parl_rows le indicamos las fila del parlamento).

rusia_parlamento <-
  as_tibble(parliament_data(election_data = rusia, type = "semicircle",
                            parl_rows = 9, party_seats = rusia$seats))
rusia_parlamento

## # A tibble: 450 × 12
##     year country house party_long party_short seats government colour      x
##    <int> <chr>   <chr> <chr>      <chr>       <int>      <int> <chr>   <dbl>
##  1  2016 Russia  Duma  Communist  CPRF           42          0 #D50000 -2   
##  2  2016 Russia  Duma  Communist  CPRF           42          0 #D50000 -1.88
##  3  2016 Russia  Duma  Communist  CPRF           42          0 #D50000 -1.75
##  4  2016 Russia  Duma  Communist  CPRF           42          0 #D50000 -1.62
##  5  2016 Russia  Duma  Communist  CPRF           42          0 #D50000 -1.5 
##  6  2016 Russia  Duma  Communist  CPRF           42          0 #D50000 -1.38
##  7  2016 Russia  Duma  Communist  CPRF           42          0 #D50000 -1.25
##  8  2016 Russia  Duma  Communist  CPRF           42          0 #D50000 -1.12
##  9  2016 Russia  Duma  Communist  CPRF           42          0 #D50000 -1   
## 10  2016 Russia  Duma  Communist  CPRF           42          0 #D50000 -2.00
## # … with 440 more rows, and 3 more variables: y <dbl>, row <int>, theta <dbl>
…
