Capítulo 24 Extrayendo información: estadística descriptiva con cuantitativas continuas | Analizando datos, visualizando información, contando historias
…
script24.R: intro a la descriptiva con cuantitativas continuas. Ver en https://github.com/dadosdelaplace/courses-ECI-2022/blob/main/scripts/script24.R

Aunque hemos aprendido algunas formas de agrupar variables continuas en categorías y subintervalos, el problema es que cuando lo hacemos estamos pagando un precio: tenemos un resumen de los datos a cambio de perder información de los mismos: todos los elementos que cae en un intervalo se les imputará un único valor: la marca de clase (que normalmente es el punto medio del intervalo).

24.1 Basados en puntos

El tratamiento de las frecuencias de datos cuantitativos es similar al de los datos ordinales, excepto por un detalle: no se tienen en cuenta todos los niveles posibles, sino solo los observados.

Vamos a analizar un conjunto de datos muy interesante, que contiene las respuestas a las preguntas «¿qué probabilidad (%) asignarías al término …? Dicha pregunta se realizaó para distintos términos como «casi sin opciones» (almost no chance), «en mayor medida» (about even), «probable» (probable) o «casi seguro» (almost certainly), con el objetivo de comprender cómo la gente percibe el vocabulario relativo a la probabilidad. Los datos y gráficos han sido basados en el trabajo de Zoni Nation y data-to-viz.com

datos <-
  read_csv("https://raw.githubusercontent.com/zonination/perceptions/master/probly.csv")
datos

## # A tibble: 46 × 17
##    `Almost Certainly` `Highly Likely` `Very Good Chanc… Probable Likely Probably
##                 <dbl>           <dbl>             <dbl>    <dbl>  <dbl>    <dbl>
##  1                 95              80                85       75     66       75
##  2                 95              75                75       51     75       51
##  3                 95              85                85       70     75       70
##  4                 95              85                85       70     75       70
##  5                 98              95                80       70     70       75
##  6                 95              99                85       90     75       75
##  7                 85              95                65       80     40       45
##  8                 97              95                75       70     70       80
##  9                 95              95                80       70     65       80
## 10                 90              85                90       70     75       70
## # … with 36 more rows, and 11 more variables: We Believe <dbl>,
## #   Better Than Even <dbl>, About Even <dbl>, We Doubt <dbl>, Improbable <dbl>,
## #   Unlikely <dbl>, Probably Not <dbl>, Little Chance <dbl>,
## #   Almost No Chance <dbl>, Highly Unlikely <dbl>, Chances Are Slight <dbl>

Vamos a visualizar la media de las probabilidades asignadas para cada caso, con un diagrama de barras. Pero antes debemos de transformar el dataset a tidydata con pivot_longer().

datos_pivot <-
  datos %>%
  pivot_longer(cols = everything(),
               names_to = "termino", values_to = "prob")
datos_pivot

## # A tibble: 782 × 2
##    termino           prob
##    <chr>            <dbl>
##  1 Almost Certainly    95
##  2 Highly Likely       80
##  3 Very Good Chance    85
##  4 Probable            75
##  5 Likely              66
##  6 Probably            75
##  7 We Believe          66
##  8 Better Than Even    55
##  9 About Even          50
## 10 We Doubt            40
## # … with 772 more rows

Tras ello, seleccionamos los términosAlmost No Chance, Chances Are Slight, Improbable, About Even, Probable y Almost Certainly. Además vamos a reordenar los niveles de factor de la variable termino con fct_reorder() (del paquete forcats)

datos_final <-
  datos_pivot %>%
  filter(termino %in% c("Almost No Chance", "Chances Are Slight",
                        "Improbable", "About Even",
                        "Probable", "Almost Certainly")) %>%
  mutate(termino = fct_reorder(termino, prob))
datos_final

## # A tibble: 276 × 2
##    termino             prob
##    <fct>              <dbl>
##  1 Almost Certainly      95
##  2 Probable              75
##  3 About Even            50
##  4 Improbable            20
##  5 Almost No Chance       5
##  6 Chances Are Slight    25
##  7 Almost Certainly      95
##  8 Probable              51
##  9 About Even            50
## 10 Improbable            49
## # … with 266 more rows
…
