Capítulo 23 Profundizando en ggplot2 | Analizando datos, visualizando información, contando historias
…
Capítulo 23 Profundizando en ggplot2

library(tidyverse)

23.1 Personalizando el tema

23.1.1 Datos

En est ocasión vamos a usar los datos de Netflix proporcionados por Paula Casado en El Arte del Dato, página en la que se basará esta visualización: visualizaremos el número de películas y series de instituto que se han estrenado en Netflix en cada año.

netflix <-
  read_csv('https://raw.githubusercontent.com/elartedeldato/datasets/main/netflix_titles.csv')
netflix

## # A tibble: 7,787 × 12
##    show_id type    title director  cast   country date_added release_year rating
##    <chr>   <chr>   <chr> <chr>     <chr>  <chr>   <chr>             <dbl> <chr> 
##  1 s1      TV Show 3%    <NA>      João … Brazil  August 14…         2020 TV-MA 
##  2 s2      Movie   7:19  Jorge Mi… Demiá… Mexico  December …         2016 TV-MA 
##  3 s3      Movie   23:59 Gilbert … Tedd … Singap… December …         2011 R     
##  4 s4      Movie   9     Shane Ac… Elija… United… November …         2009 PG-13 
##  5 s5      Movie   21    Robert L… Jim S… United… January 1…         2008 PG-13 
##  6 s6      TV Show 46    Serdar A… Erdal… Turkey  July 1, 2…         2016 TV-MA 
##  7 s7      Movie   122   Yasir Al… Amina… Egypt   June 1, 2…         2019 TV-MA 
##  8 s8      Movie   187   Kevin Re… Samue… United… November …         1997 R     
##  9 s9      Movie   706   Shravan … Divya… India   April 1, …         2019 TV-14 
## 10 s10     Movie   1920  Vikram B… Rajne… India   December …         2008 TV-MA 
## # … with 7,777 more rows, and 3 more variables: duration <chr>,
## #   listed_in <chr>, description <chr>

Los datos provienen originalmente de Kaggle, y contienen las películas y series de Netflix hasta enero de 2021. Para visualizar vamos a filtrar las películas y series de instituto, usando la función str_detect() (del paquete stringr), que nos devolverá TRUE si detecta en la variable description (pasándola a mayúsculas) el patrón de texto "HIGH SCHOOL".

netflix_hs <- netflix %>%
  filter(str_detect(toupper(description), "HIGH SCHOOL"))
netflix_hs 

## # A tibble: 150 × 12
##    show_id type  title   director cast    country date_added release_year rating
##    <chr>   <chr> <chr>   <chr>    <chr>   <chr>   <chr>             <dbl> <chr> 
##  1 s8      Movie 187     Kevin R… Samuel… United… November …         1997 R     
##  2 s32     Movie #Frien… Rako Pr… Adipat… Indone… May 21, 2…         2018 TV-G  
##  3 s34     Movie #reali… Fernand… Nesta … United… September…         2017 TV-14 
##  4 s47     Movie 1 Chan… Adam De… Lexi G… United… July 1, 2…         2014 TV-PG 
##  5 s48     Movie 1 Mile… Leif Ti… Billy … United… July 7, 2…         2017 TV-14 
##  6 s56     Movie 100 Th… <NA>     Isabel… United… November …         2014 TV-Y  
##  7 s58     Movie 100% H… Jastis … Anisa … Indone… January 7…         2020 TV-14 
##  8 s148    Movie A Baby… Rachel … Tamara… United… October 1…         2020 TV-PG 
##  9 s251    Movie A Walk… Adam Sh… Mandy … United… July 1, 2…         2002 PG    
## 10 s297    Movie Across… Julien … Sarah … Canada  April 1, …         2015 TV-MA 
## # … with 140 more rows, and 3 more variables: duration <chr>, listed_in <chr>,
## #   description <chr>
…
