Capítulo 22 Visualizando datos: incursión a ggplot2 | Analizando datos, visualizando información, contando historias
…
Temas (theme): fuente, tamaño de letra, subtítulos, captions, leyenda, ejes, etc.

22.2 Primer intento: scatter plot o diagrama de puntos

Veamos un primer intento para entender la filosofía. Imagina que queremos dibujar un scatter plot o diagrama de (dispersión) de puntos.

22.2.1 Datos: gapminder

Para ello vamos a usar el conjunto de datos gapminder, del paquete homónimo: un fichero con datos de esperanzas de vida, poblaciones y renta per cápita de distintos países en distintos momentos temporales.

library(gapminder)
gapminder

## # A tibble: 1,704 × 6
##    country     continent  year lifeExp      pop gdpPercap
##    <fct>       <fct>     <int>   <dbl>    <int>     <dbl>
##  1 Afghanistan Asia       1952    28.8  8425333      779.
##  2 Afghanistan Asia       1957    30.3  9240934      821.
##  3 Afghanistan Asia       1962    32.0 10267083      853.
##  4 Afghanistan Asia       1967    34.0 11537966      836.
##  5 Afghanistan Asia       1972    36.1 13079460      740.
##  6 Afghanistan Asia       1977    38.4 14880372      786.
##  7 Afghanistan Asia       1982    39.9 12881816      978.
##  8 Afghanistan Asia       1987    40.8 13867957      852.
##  9 Afghanistan Asia       1992    41.7 16317921      649.
## 10 Afghanistan Asia       1997    41.8 22227415      635.
## # … with 1,694 more rows
…
## Rows: 1,704
## Columns: 6
## $ country   <fct> "Afghanistan", "Afghanistan", "Afghanistan", "Afghanistan", …
## $ continent <fct> Asia, Asia, Asia, Asia, Asia, Asia, Asia, Asia, Asia, Asia, …
## $ year      <int> 1952, 1957, 1962, 1967, 1972, 1977, 1982, 1987, 1992, 1997, …
## $ lifeExp   <dbl> 28.801, 30.332, 31.997, 34.020, 36.088, 38.438, 39.854, 40.8…
## $ pop       <int> 8425333, 9240934, 10267083, 11537966, 13079460, 14880372, 12…
## $ gdpPercap <dbl> 779.4453, 820.8530, 853.1007, 836.1971, 739.9811, 786.1134, …

Para empezar con algo sencillo filtraremos los datos de 1997 haciendo uso de filter().

gapminder_1997 <- gapminder %>% filter(year == 1997)
gapminder_1997

## # A tibble: 142 × 6
##    country     continent  year lifeExp       pop gdpPercap
##    <fct>       <fct>     <int>   <dbl>     <int>     <dbl>
##  1 Afghanistan Asia       1997    41.8  22227415      635.
##  2 Albania     Europe     1997    73.0   3428038     3193.
##  3 Algeria     Africa     1997    69.2  29072015     4797.
##  4 Angola      Africa     1997    41.0   9875024     2277.
##  5 Argentina   Americas   1997    73.3  36203463    10967.
##  6 Australia   Oceania    1997    78.8  18565243    26998.
##  7 Austria     Europe     1997    77.5   8069876    29096.
##  8 Bahrain     Asia       1997    73.9    598561    20292.
##  9 Bangladesh  Asia       1997    59.4 123315288      973.
## 10 Belgium     Europe     1997    77.5  10199787    27561.
## # … with 132 more rows
…
Lo que hemos hecho con geom_col() es sumar todos los valores de renta per cápita, de todos los países, para cada año.

¿Cómo podríamos dibujar, para cada año, una barra para cada continente (con su suma)?

Primero vamos a obtener los datos agrupados por continente y año.

gapminder_por_continente <-
  gapminder %>% group_by(year, continent) %>%
  summarise(sum_gdpPercap = sum(gdpPercap))
gapminder_por_continente

## # A tibble: 60 × 3
## # Groups:   year [12]
##     year continent sum_gdpPercap
##    <int> <fct>             <dbl>
##  1  1952 Africa           65134.
##  2  1952 Americas        101977.
##  3  1952 Asia            171451.
##  4  1952 Europe          169832.
##  5  1952 Oceania          20596.
##  6  1957 Africa           72032.
##  7  1957 Americas        115401.
##  8  1957 Asia            190995.
##  9  1957 Europe          208890.
## 10  1957 Oceania          23197.
## # … with 50 more rows
…
22.4 Tercer intento: personalizando el tema

22.4.1 Datos

En est ocasión vamos a usar los datos de Netflix proporcionados por Paula Casado en El Arte del Dato, página en la que se basará esta visualización: visualizaremos el número de películas y series de instituto que se han estrenado en Netflix en cada año.

netflix <-
  read_csv('https://raw.githubusercontent.com/elartedeldato/datasets/main/netflix_titles.csv')
netflix

## # A tibble: 7,787 × 12
##    show_id type    title director  cast   country date_added release_year rating
##    <chr>   <chr>   <chr> <chr>     <chr>  <chr>   <chr>             <dbl> <chr> 
##  1 s1      TV Show 3%    <NA>      João … Brazil  August 14…         2020 TV-MA 
##  2 s2      Movie   7:19  Jorge Mi… Demiá… Mexico  December …         2016 TV-MA 
##  3 s3      Movie   23:59 Gilbert … Tedd … Singap… December …         2011 R     
##  4 s4      Movie   9     Shane Ac… Elija… United… November …         2009 PG-13 
##  5 s5      Movie   21    Robert L… Jim S… United… January 1…         2008 PG-13 
##  6 s6      TV Show 46    Serdar A… Erdal… Turkey  July 1, 2…         2016 TV-MA 
##  7 s7      Movie   122   Yasir Al… Amina… Egypt   June 1, 2…         2019 TV-MA 
##  8 s8      Movie   187   Kevin Re… Samue… United… November …         1997 R     
##  9 s9      Movie   706   Shravan … Divya… India   April 1, …         2019 TV-14 
## 10 s10     Movie   1920  Vikram B… Rajne… India   December …         2008 TV-MA 
## # … with 7,777 more rows, and 3 more variables: duration <chr>,
## #   listed_in <chr>, description <chr>

Los datos provienen originalmente de Kaggle, y contienen las películas y series de Netflix hasta enero de 2021. Para visualizar vamos a filtrar las películas y series de instituto, usando la función str_detect() (del paquete stringr), que nos devolverá TRUE si detecta en la variable description (pasándola a mayúsculas) el patrón de texto "HIGH SCHOOL".

netflix_hs <- netflix %>%
  filter(str_detect(toupper(description), "HIGH SCHOOL"))
netflix_hs 

## # A tibble: 150 × 12
##    show_id type  title   director cast    country date_added release_year rating
##    <chr>   <chr> <chr>   <chr>    <chr>   <chr>   <chr>             <dbl> <chr> 
##  1 s8      Movie 187     Kevin R… Samuel… United… November …         1997 R     
##  2 s32     Movie #Frien… Rako Pr… Adipat… Indone… May 21, 2…         2018 TV-G  
##  3 s34     Movie #reali… Fernand… Nesta … United… September…         2017 TV-14 
##  4 s47     Movie 1 Chan… Adam De… Lexi G… United… July 1, 2…         2014 TV-PG 
##  5 s48     Movie 1 Mile… Leif Ti… Billy … United… July 7, 2…         2017 TV-14 
##  6 s56     Movie 100 Th… <NA>     Isabel… United… November …         2014 TV-Y  
##  7 s58     Movie 100% H… Jastis … Anisa … Indone… January 7…         2020 TV-14 
##  8 s148    Movie A Baby… Rachel … Tamara… United… October 1…         2020 TV-PG 
##  9 s251    Movie A Walk… Adam Sh… Mandy … United… July 1, 2…         2002 PG    
## 10 s297    Movie Across… Julien … Sarah … Canada  April 1, …         2015 TV-MA 
## # … with 140 more rows, and 3 more variables: duration <chr>, listed_in <chr>,
## #   description <chr>
…
