Capítulo 17 Sacando datos de las piedras | Analizando datos, visualizando información, contando historias
…
Dicho fichero hemos visto que podemos convertirlo a un formato más óptimo con as_tibble()

titanic <- as_tibble(titanic)
titanic

## # A tibble: 891 × 12
##    PassengerId Survived Pclass Name   Sex     Age SibSp Parch Ticket  Fare Cabin
##          <int>    <int>  <int> <fct>  <fct> <dbl> <int> <int> <fct>  <dbl> <fct>
##  1           1        0      3 Braun… male     22     1     0 A/5 2…  7.25 ""   
##  2           2        1      1 Cumin… fema…    38     1     0 PC 17… 71.3  "C85"
##  3           3        1      3 Heikk… fema…    26     0     0 STON/…  7.92 ""   
##  4           4        1      1 Futre… fema…    35     1     0 113803 53.1  "C12…
##  5           5        0      3 Allen… male     35     0     0 373450  8.05 ""   
##  6           6        0      3 Moran… male     NA     0     0 330877  8.46 ""   
##  7           7        0      1 McCar… male     54     0     0 17463  51.9  "E46"
##  8           8        0      3 Palss… male      2     3     1 349909 21.1  ""   
##  9           9        1      3 Johns… fema…    27     0     2 347742 11.1  ""   
## 10          10        1      2 Nasse… fema…    14     1     0 237736 30.1  ""   
## # … with 881 more rows, and 1 more variable: Embarked <fct>
…
Una diferencia con los .RData es que estos no necesitan que le asignemos el valor a una variable (dentro de un .RData tenemos ya guardada la variable). Fíjate que es el mismo archivo que antes, y que nos lo ha guardado en formato data.frame.

¿Cómo podríamos cargar un .csv pero ya guardado en tibble? Para ello usaremos la función read_csv() del paquete readr.

titanic <- read_csv(file = "./DATOS/titanic.csv")
titanic

## # A tibble: 891 × 12
##    PassengerId Survived Pclass Name   Sex     Age SibSp Parch Ticket  Fare Cabin
##          <dbl>    <dbl>  <dbl> <chr>  <chr> <dbl> <dbl> <dbl> <chr>  <dbl> <chr>
##  1           1        0      3 Braun… male     22     1     0 A/5 2…  7.25 <NA> 
##  2           2        1      1 Cumin… fema…    38     1     0 PC 17… 71.3  C85  
##  3           3        1      3 Heikk… fema…    26     0     0 STON/…  7.92 <NA> 
##  4           4        1      1 Futre… fema…    35     1     0 113803 53.1  C123 
##  5           5        0      3 Allen… male     35     0     0 373450  8.05 <NA> 
##  6           6        0      3 Moran… male     NA     0     0 330877  8.46 <NA> 
##  7           7        0      1 McCar… male     54     0     0 17463  51.9  E46  
##  8           8        0      3 Palss… male      2     3     1 349909 21.1  <NA> 
##  9           9        1      3 Johns… fema…    27     0     2 347742 11.1  <NA> 
## 10          10        1      2 Nasse… fema…    14     1     0 237736 30.1  <NA> 
## # … with 881 more rows, and 1 more variable: Embarked <chr>

Una de las ventajas de la carga de archivos en R es que muchos formatos podemos cargarlos sin ni siquiera tener el archivo en nuestro ordenador, a través de un enlace web. Vamos a ver un ejemplo con los datos del ISCIII sobre la pandemia. En su web https://cnecovid.isciii.es/covid19/#documentaci%C3%B3n-y-datos tienen varios archivos colgados, que podemos o bien descargarlos, o haciendo click derecho «Copiar dirección de enlace» obtenemos un enlace. Por ejemplo, para el archivo casos_tecnica_ccaa.csv, que nos almacena el número de casos por técnica diagnóstica y CCAA, tenemos el enlace https://cnecovid.isciii.es/covid19/resources/casos_tecnica_ccaa.csv. Dicho enlace es el que se abre cuando pulsamos en Descargar, pero podemos introducirlo directamente en R, sustituyendo a nuestra ruta en read_csv(), y teniéndolo ya almacenado en formato tibble.

datos_ISCIII <- read_csv(file = "https://cnecovid.isciii.es/covid19/resources/casos_tecnica_ccaa.csv")
datos_ISCIII

## # A tibble: 13,984 × 8
##    ccaa_iso fecha      num_casos num_casos_prueba_pcr num_casos_prueba_test_ac
##    <chr>    <date>         <dbl>                <dbl>                    <dbl>
##  1 AN       2020-01-01         0                    0                        0
##  2 AR       2020-01-01         0                    0                        0
##  3 AS       2020-01-01         0                    0                        0
##  4 CB       2020-01-01         0                    0                        0
##  5 CE       2020-01-01         0                    0                        0
##  6 CL       2020-01-01         0                    0                        0
##  7 CM       2020-01-01         0                    0                        0
##  8 CN       2020-01-01         0                    0                        0
##  9 CT       2020-01-01         0                    0                        0
## 10 EX       2020-01-01         0                    0                        0
## # … with 13,974 more rows, and 3 more variables: num_casos_prueba_ag <dbl>,
## #   num_casos_prueba_elisa <dbl>, num_casos_prueba_desconocida <dbl>
…
17.5 Estadísticas del Eurostat (desde paquete)

Una opción muy común es cargar datos desde paquetes que ya los tienen incorporadas (o los consiguen a través de una API). Uno de los ejemplos más útiles seguramente sea el paquete del EUROSTATeurostat, un paquete para obtener datos abiertos de la Oficina Europea de Estadística. Puedes ver toda la documentación en https://ropengov.github.io/eurostat/articles/articles/eurostat_tutorial.html

Dicho paquete contiene la función search_eurostat(), que nos permite buscar conjuntos de datos por palabras clave (nos muestra una tabla con los datasets y sus códigos).

library(eurostat) # instalar la primera vez

# Buscamos datos por palabras clave
datos_disponibles <- search_eurostat("passengers")
datos_disponibles

## # A tibble: 22 × 8
##    title   code  type  `last update of… `last table str… `data start` `data end`
##    <chr>   <chr> <chr> <chr>            <chr>            <chr>        <chr>     
##  1 Mariti… tran… data… 02.12.2021       02.12.2021       1997         2020      
##  2 Air tr… tran… data… 06.09.2021       06.09.2021       1993         2020      
##  3 Railwa… tran… data… 21.09.2021       21.09.2021       2005         2020      
##  4 Mariti… tran… data… 27.03.2009       08.02.2021       1978         2002      
##  5 Air tr… tran… data… 27.03.2009       08.02.2021       1978         2002      
##  6 Air tr… med_… data… 28.05.2020       01.06.2021       2005         2018      
##  7 Mariti… med_… data… 28.05.2020       01.06.2021       2005         2018      
##  8 Mariti… tran… data… 02.12.2021       02.12.2021       1997         2020      
##  9 Air tr… tran… data… 06.09.2021       06.09.2021       1993         2020      
## 10 Railwa… tran… data… 21.09.2021       21.09.2021       2005         2020      
## # … with 12 more rows, and 1 more variable: values <chr>
…
