Capítulo 15 Mejorando los data.frame: datos tibble | Analizando datos, visualizando información, contando historias
…
# tibble
tabla_tb <- tibble("x" = 1:50,
             "y" = rep(c("a", "b", "c", "d", "e"), 10),
             "z" = 11:60,
             "logica" = rep(c(TRUE, TRUE, FALSE, TRUE, FALSE), 10))
tabla_tb

## # A tibble: 50 × 4
##        x y         z logica
##    <int> <chr> <int> <lgl> 
##  1     1 a        11 TRUE  
##  2     2 b        12 TRUE  
##  3     3 c        13 FALSE 
##  4     4 d        14 TRUE  
##  5     5 e        15 FALSE 
##  6     6 a        16 TRUE  
##  7     7 b        17 TRUE  
##  8     8 c        18 FALSE 
##  9     9 d        19 TRUE  
## 10    10 e        20 FALSE 
## # … with 40 more rows

Puedes imprimir las filas y columnas que quieras con print(), pero por defecto te aseguras de no saturar la consola.

print(tabla_tb, n = 13, width = Inf)

## # A tibble: 50 × 4
##        x y         z logica
##    <int> <chr> <int> <lgl> 
##  1     1 a        11 TRUE  
##  2     2 b        12 TRUE  
##  3     3 c        13 FALSE 
##  4     4 d        14 TRUE  
##  5     5 e        15 FALSE 
##  6     6 a        16 TRUE  
##  7     7 b        17 TRUE  
##  8     8 c        18 FALSE 
##  9     9 d        19 TRUE  
## 10    10 e        20 FALSE 
## 11    11 a        21 TRUE  
## 12    12 b        22 TRUE  
## 13    13 c        23 FALSE 
## # … with 37 more rows
…
15.1 Consejos

CONSEJOS

Convertir a tibble

Si ya tienes un data.frame es altamente recomendable convertirlo a tibble con as_tibble() (del paquete dplyr)

library(dplyr)
as_tibble(tabla_df)

## # A tibble: 50 × 4
##        x y         z logica
##    <int> <fct> <int> <lgl> 
##  1     1 a        11 TRUE  
##  2     2 b        12 TRUE  
##  3     3 c        13 FALSE 
##  4     4 d        14 TRUE  
##  5     5 e        15 FALSE 
##  6     6 a        16 TRUE  
##  7     7 b        17 TRUE  
##  8     8 c        18 FALSE 
##  9     9 d        19 TRUE  
## 10    10 e        20 FALSE 
## # … with 40 more rows
…
No especifica al imprimir el tipo de dato de las columnas.

Imprime el nombre de las filas (el nombre de los modelos) como si fuera una variable (¡que no existe!).

📝Ejercicio 2: convierte el conjunto airquality de data.frame a tibble. 

Solución:

Así debería de salir si fuera tibble.

library(dplyr)
airquality_tb <- as_tibble(airquality)
airquality_tb

## # A tibble: 153 × 6
##    Ozone Solar.R  Wind  Temp Month   Day
##    <int>   <int> <dbl> <int> <int> <int>
##  1    41     190   7.4    67     5     1
##  2    36     118   8      72     5     2
##  3    12     149  12.6    74     5     3
##  4    18     313  11.5    62     5     4
##  5    NA      NA  14.3    56     5     5
##  6    28      NA  14.9    66     5     6
##  7    23     299   8.6    65     5     7
##  8    19      99  13.8    59     5     8
##  9     8      19  20.1    61     5     9
## 10    NA     194   8.6    69     5    10
## # … with 143 more rows
…
📝Ejercicio 5: obten de los paquetes dplyr y gapminder los conjuntos de datos tibble starwars y gapminder. Comprueba el número de variables, de registros e imprime los datos

Solución:

# starwars
library(dplyr)
starwars

## # A tibble: 87 × 14
##    name    height  mass hair_color  skin_color eye_color birth_year sex   gender
##    <chr>    <int> <dbl> <chr>       <chr>      <chr>          <dbl> <chr> <chr> 
##  1 Luke S…    172    77 blond       fair       blue            19   male  mascu…
##  2 C-3PO      167    75 <NA>        gold       yellow         112   none  mascu…
##  3 R2-D2       96    32 <NA>        white, bl… red             33   none  mascu…
##  4 Darth …    202   136 none        white      yellow          41.9 male  mascu…
##  5 Leia O…    150    49 brown       light      brown           19   fema… femin…
##  6 Owen L…    178   120 brown, grey light      blue            52   male  mascu…
##  7 Beru W…    165    75 brown       light      blue            47   fema… femin…
##  8 R5-D4       97    32 <NA>        white, red red             NA   none  mascu…
##  9 Biggs …    183    84 black       light      brown           24   male  mascu…
## 10 Obi-Wa…    182    77 auburn, wh… fair       blue-gray       57   male  mascu…
## # … with 77 more rows, and 5 more variables: homeworld <chr>, species <chr>,
## #   films <list>, vehicles <list>, starships <list>
…
dim(starwars) # dimensiones

## [1] 87 14

# gapminder
library(gapminder)
gapminder

## # A tibble: 1,704 × 6
##    country     continent  year lifeExp      pop gdpPercap
##    <fct>       <fct>     <int>   <dbl>    <int>     <dbl>
##  1 Afghanistan Asia       1952    28.8  8425333      779.
##  2 Afghanistan Asia       1957    30.3  9240934      821.
##  3 Afghanistan Asia       1962    32.0 10267083      853.
##  4 Afghanistan Asia       1967    34.0 11537966      836.
##  5 Afghanistan Asia       1972    36.1 13079460      740.
##  6 Afghanistan Asia       1977    38.4 14880372      786.
##  7 Afghanistan Asia       1982    39.9 12881816      978.
##  8 Afghanistan Asia       1987    40.8 13867957      852.
##  9 Afghanistan Asia       1992    41.7 16317921      649.
## 10 Afghanistan Asia       1997    41.8 22227415      635.
## # … with 1,694 more rows
…
