Capítulo 19 Depuración y transformación | Analizando datos, visualizando información, contando historias
…
starwars

## # A tibble: 87 × 14
##    name    height  mass hair_color  skin_color eye_color birth_year sex   gender
##    <chr>    <int> <dbl> <chr>       <chr>      <chr>          <dbl> <chr> <chr> 
##  1 Luke S…    172    77 blond       fair       blue            19   male  mascu…
##  2 C-3PO      167    75 <NA>        gold       yellow         112   none  mascu…
##  3 R2-D2       96    32 <NA>        white, bl… red             33   none  mascu…
##  4 Darth …    202   136 none        white      yellow          41.9 male  mascu…
##  5 Leia O…    150    49 brown       light      brown           19   fema… femin…
##  6 Owen L…    178   120 brown, grey light      blue            52   male  mascu…
##  7 Beru W…    165    75 brown       light      blue            47   fema… femin…
##  8 R5-D4       97    32 <NA>        white, red red             NA   none  mascu…
##  9 Biggs …    183    84 black       light      brown           24   male  mascu…
## 10 Obi-Wa…    182    77 auburn, wh… fair       blue-gray       57   male  mascu…
## # … with 77 more rows, and 5 more variables: homeworld <chr>, species <chr>,
## #   films <list>, vehicles <list>, starships <list>
…
Los datos también podemos verlos escribiendo el nombre de la tabla en la consola (recuerda que si es un tibble, para evitar saturar la consola, te saca un extracto, no todas las columnas y filas) o bien con la función print(), indicándole número de filas (n = 15 por ejemplo) y número de columnas (width = Inf si queremos mostrar todas).

# Imprimir personalizado
print(starwars, n = 5, width = Inf)

## # A tibble: 87 × 14
##   name           height  mass hair_color skin_color  eye_color birth_year sex   
##   <chr>           <int> <dbl> <chr>      <chr>       <chr>          <dbl> <chr> 
## 1 Luke Skywalker    172    77 blond      fair        blue            19   male  
## 2 C-3PO             167    75 <NA>       gold        yellow         112   none  
## 3 R2-D2              96    32 <NA>       white, blue red             33   none  
## 4 Darth Vader       202   136 none       white       yellow          41.9 male  
## 5 Leia Organa       150    49 brown      light       brown           19   female
##   gender    homeworld species films     vehicles  starships
##   <chr>     <chr>     <chr>   <list>    <list>    <list>   
## 1 masculine Tatooine  Human   <chr [5]> <chr [2]> <chr [2]>
## 2 masculine Tatooine  Droid   <chr [6]> <chr [0]> <chr [0]>
## 3 masculine Naboo     Droid   <chr [7]> <chr [0]> <chr [0]>
## 4 masculine Tatooine  Human   <chr [4]> <chr [0]> <chr [1]>
## 5 feminine  Alderaan  Human   <chr [5]> <chr [1]> <chr [0]>
## # … with 82 more rows
…
19.2.1 Seleccionar filas (filter y slice)

Empecemos por aprender a seleccionar filas. Principalmente tenemos tres opciones:

Seleccionarlas en base a algún filtro o condición (solo los mayores de tal edad, por ejemplo).

Extraer filas por su índice de fila (la fila que ocupa tal personaje).

Extraer filas aleatoriamente (uniforme) (por ejemplo, para un sorteo).

En el primer caso, la función filter() nos permite seleccionar filas en base al cumplimiento de una o varias condiciones lógicas respecto a las variables. Para usarla basta con que introduzcamos como argumento el conjunto de condiciones que debe cumplir (recuerda: el nombre de columnas sin comillas). Supongamos que queremos por ejemplo seleccionar los personajes con ojos marrones: nos bastará con usar filter() con la condición eye_color == "brown".

starwars %>% filter(eye_color == "brown") # con ojos marrones

## # A tibble: 21 × 14
##    name     height  mass hair_color skin_color eye_color birth_year sex   gender
##    <chr>     <int> <dbl> <chr>      <chr>      <chr>          <dbl> <chr> <chr> 
##  1 Leia Or…    150  49   brown      light      brown           19   fema… femin…
##  2 Biggs D…    183  84   black      light      brown           24   male  mascu…
##  3 Han Solo    180  80   brown      fair       brown           29   male  mascu…
##  4 Yoda         66  17   white      green      brown          896   male  mascu…
##  5 Boba Fe…    183  78.2 black      fair       brown           31.5 male  mascu…
##  6 Lando C…    177  79   black      dark       brown           31   male  mascu…
##  7 Arvel C…     NA  NA   brown      fair       brown           NA   male  mascu…
##  8 Wicket …     88  20   brown      brown      brown            8   male  mascu…
##  9 Quarsh …    183  NA   black      dark       brown           62   <NA>  <NA>  
## 10 Shmi Sk…    163  NA   black      fair       brown           72   fema… femin…
## # … with 11 more rows, and 5 more variables: homeworld <chr>, species <chr>,
## #   films <list>, vehicles <list>, starships <list>

Esta forma de trabajar los datos sería algo más difícil de leer fuera del entorno tidyverse (a pesar de que la operación es sencilla).

# A la «antigua» usanza
starwars[starwars$eye_color == "brown", ]

## # A tibble: 21 × 14
##    name     height  mass hair_color skin_color eye_color birth_year sex   gender
##    <chr>     <int> <dbl> <chr>      <chr>      <chr>          <dbl> <chr> <chr> 
##  1 Leia Or…    150  49   brown      light      brown           19   fema… femin…
##  2 Biggs D…    183  84   black      light      brown           24   male  mascu…
##  3 Han Solo    180  80   brown      fair       brown           29   male  mascu…
##  4 Yoda         66  17   white      green      brown          896   male  mascu…
##  5 Boba Fe…    183  78.2 black      fair       brown           31.5 male  mascu…
##  6 Lando C…    177  79   black      dark       brown           31   male  mascu…
##  7 Arvel C…     NA  NA   brown      fair       brown           NA   male  mascu…
##  8 Wicket …     88  20   brown      brown      brown            8   male  mascu…
##  9 Quarsh …    183  NA   black      dark       brown           62   <NA>  <NA>  
## 10 Shmi Sk…    163  NA   black      fair       brown           72   fema… femin…
## # … with 11 more rows, and 5 more variables: homeworld <chr>, species <chr>,
## #   films <list>, vehicles <list>, starships <list>

Con %>% y filter(), en tan solo una línea, hemos hecho más de lo que parece: R ha «recorrido» (algo similar a un bucle) cada una de las filas y ha ido comprobando que filas cumplen la condición y cuales no.

Con la misma lógica podemos seleccionar los que NO TIENEN ojos marrones, cambiando == por !=

starwars %>% filter(eye_color != "brown") # NO tengan ojos marrones

## # A tibble: 66 × 14
##    name    height  mass hair_color  skin_color eye_color birth_year sex   gender
##    <chr>    <int> <dbl> <chr>       <chr>      <chr>          <dbl> <chr> <chr> 
##  1 Luke S…    172    77 blond       fair       blue            19   male  mascu…
##  2 C-3PO      167    75 <NA>        gold       yellow         112   none  mascu…
##  3 R2-D2       96    32 <NA>        white, bl… red             33   none  mascu…
##  4 Darth …    202   136 none        white      yellow          41.9 male  mascu…
##  5 Owen L…    178   120 brown, grey light      blue            52   male  mascu…
##  6 Beru W…    165    75 brown       light      blue            47   fema… femin…
##  7 R5-D4       97    32 <NA>        white, red red             NA   none  mascu…
##  8 Obi-Wa…    182    77 auburn, wh… fair       blue-gray       57   male  mascu…
##  9 Anakin…    188    84 blond       fair       blue            41.9 male  mascu…
## 10 Wilhuf…    180    NA auburn, gr… fair       blue            64   male  mascu…
## # … with 56 more rows, and 5 more variables: homeworld <chr>, species <chr>,
## #   films <list>, vehicles <list>, starships <list>

También se pueden seleccionar los personajes que tienen los ojos de una serie de colores permitidos: con %in% le indicaremos que seleccione solo aquellas filas cuyo valor de la variable eye_color esté dentro de unos valores candidatos.

starwars %>% # con ojos marrones, azules o rojos
  filter(eye_color %in% c("brown", "blue", "red"))

## # A tibble: 45 × 14
##    name    height  mass hair_color  skin_color eye_color birth_year sex   gender
##    <chr>    <int> <dbl> <chr>       <chr>      <chr>          <dbl> <chr> <chr> 
##  1 Luke S…    172    77 blond       fair       blue            19   male  mascu…
##  2 R2-D2       96    32 <NA>        white, bl… red             33   none  mascu…
##  3 Leia O…    150    49 brown       light      brown           19   fema… femin…
##  4 Owen L…    178   120 brown, grey light      blue            52   male  mascu…
##  5 Beru W…    165    75 brown       light      blue            47   fema… femin…
##  6 R5-D4       97    32 <NA>        white, red red             NA   none  mascu…
##  7 Biggs …    183    84 black       light      brown           24   male  mascu…
##  8 Anakin…    188    84 blond       fair       blue            41.9 male  mascu…
##  9 Wilhuf…    180    NA auburn, gr… fair       blue            64   male  mascu…
## 10 Chewba…    228   112 brown       unknown    blue           200   male  mascu…
## # … with 35 more rows, and 5 more variables: homeworld <chr>, species <chr>,
## #   films <list>, vehicles <list>, starships <list>
…
# 100 con reemplazamiento
# (si fuera sin reemplazamiento, daría error)
starwars %>% slice_sample(n = 100, replace = TRUE) 

## # A tibble: 100 × 14
##    name     height  mass hair_color skin_color eye_color birth_year sex   gender
##    <chr>     <int> <dbl> <chr>      <chr>      <chr>          <dbl> <chr> <chr> 
##  1 Jek Ton…    180   110 brown      fair       blue              NA male  mascu…
##  2 IG-88       200   140 none       metal      red               15 none  mascu…
##  3 Ayla Se…    178    55 none       blue       hazel             48 fema… femin…
##  4 Leia Or…    150    49 brown      light      brown             19 fema… femin…
##  5 Gregar …    185    85 black      dark       brown             NA male  mascu…
##  6 Palpati…    170    75 grey       pale       yellow            82 male  mascu…
##  7 Han Solo    180    80 brown      fair       brown             29 male  mascu…
##  8 Tarfful     234   136 brown      brown      blue              NA male  mascu…
##  9 Wicket …     88    20 brown      brown      brown              8 male  mascu…
## 10 Greedo      173    74 <NA>       green      black             44 male  mascu…
## # … with 90 more rows, and 5 more variables: homeworld <chr>, species <chr>,
## #   films <list>, vehicles <list>, starships <list>
…
19.2.2 Reordenar filas (arrange)

Otra operación habitual en las filas es ordenarlas en función del valor de alguna de las variables. Para ello tenemos la función arrange(), que usaremos pasándole como argumento el nombre de la variable que usaremos para la ordenación. Por ejemplo, vamos a ordenar nuestra tabla de personajes por altura, de bajitos a altos.

# Con arrange ordenamos en base al orden de la variable que introduzcamos
starwars %>% arrange(height) # de bajitos a altos, yoda al poder

## # A tibble: 87 × 14
##    name     height  mass hair_color skin_color eye_color birth_year sex   gender
##    <chr>     <int> <dbl> <chr>      <chr>      <chr>          <dbl> <chr> <chr> 
##  1 Yoda         66    17 white      green      brown            896 male  mascu…
##  2 Ratts T…     79    15 none       grey, blue unknown           NA male  mascu…
##  3 Wicket …     88    20 brown      brown      brown              8 male  mascu…
##  4 Dud Bolt     94    45 none       blue, grey yellow            NA male  mascu…
##  5 R2-D2        96    32 <NA>       white, bl… red               33 none  mascu…
##  6 R4-P17       96    NA none       silver, r… red, blue         NA none  femin…
##  7 R5-D4        97    32 <NA>       white, red red               NA none  mascu…
##  8 Sebulba     112    40 none       grey, red  orange            NA male  mascu…
##  9 Gasgano     122    NA none       white, bl… black             NA male  mascu…
## 10 Watto       137    NA black      blue, grey yellow            NA male  mascu…
## # … with 77 more rows, and 5 more variables: homeworld <chr>, species <chr>,
## #   films <list>, vehicles <list>, starships <list>

Por defecto la ordenación es de menor a mayor pero podemos invertirlo usando desc().

# Por defecto lo hace ascendente pero podemos cambiarlo
starwars %>% arrange(desc(height))

## # A tibble: 87 × 14
##    name    height  mass hair_color skin_color  eye_color birth_year sex   gender
##    <chr>    <int> <dbl> <chr>      <chr>       <chr>          <dbl> <chr> <chr> 
##  1 Yarael…    264    NA none       white       yellow          NA   male  mascu…
##  2 Tarfful    234   136 brown      brown       blue            NA   male  mascu…
##  3 Lama Su    229    88 none       grey        black           NA   male  mascu…
##  4 Chewba…    228   112 brown      unknown     blue           200   male  mascu…
##  5 Roos T…    224    82 none       grey        orange          NA   male  mascu…
##  6 Grievo…    216   159 none       brown, whi… green, y…       NA   male  mascu…
##  7 Taun We    213    NA none       grey        black           NA   fema… femin…
##  8 Rugor …    206    NA none       green       orange          NA   male  mascu…
##  9 Tion M…    206    80 none       grey        black           NA   male  mascu…
## 10 Darth …    202   136 none       white       yellow          41.9 male  mascu…
## # … with 77 more rows, and 5 more variables: homeworld <chr>, species <chr>,
## #   films <list>, vehicles <list>, starships <list>

La ordenación también puede realizarse en base al valor de dos o más variables: ordenará las filas en base a la primera, en caso de empate usará la segunda, en caso de empate la tercera, y así sucesivamente. Vamos a ordenar los personajes por altura y, luego, por peso.

# Podemos combinar varios criterios: ordenados de bajitos a altos,
# y en caso de empate, de pesados a ligeros. Un dato NA va siempre al final
starwars %>% arrange(height, desc(mass))

## # A tibble: 87 × 14
##    name     height  mass hair_color skin_color eye_color birth_year sex   gender
##    <chr>     <int> <dbl> <chr>      <chr>      <chr>          <dbl> <chr> <chr> 
##  1 Yoda         66    17 white      green      brown            896 male  mascu…
##  2 Ratts T…     79    15 none       grey, blue unknown           NA male  mascu…
##  3 Wicket …     88    20 brown      brown      brown              8 male  mascu…
##  4 Dud Bolt     94    45 none       blue, grey yellow            NA male  mascu…
##  5 R2-D2        96    32 <NA>       white, bl… red               33 none  mascu…
##  6 R4-P17       96    NA none       silver, r… red, blue         NA none  femin…
##  7 R5-D4        97    32 <NA>       white, red red               NA none  mascu…
##  8 Sebulba     112    40 none       grey, red  orange            NA male  mascu…
##  9 Gasgano     122    NA none       white, bl… black             NA male  mascu…
## 10 Watto       137    NA black      blue, grey yellow            NA male  mascu…
## # … with 77 more rows, and 5 more variables: homeworld <chr>, species <chr>,
## #   films <list>, vehicles <list>, starships <list>
…
19.2.3 Eliminar filas y duplicados (slice y distinct)

La misma lógica que hemos usado para seleccionar filas podemos usarla para eliminar filas con slice(), simplemente negando la condición de filtrado. Por ejemplo, vamos a eliminar las 5 primeras filas.

# Eliminamos por índices
starwars %>% slice(-(1:5)) # eliminamos las 5 primeras filas

## # A tibble: 82 × 14
##    name    height  mass hair_color  skin_color eye_color birth_year sex   gender
##    <chr>    <int> <dbl> <chr>       <chr>      <chr>          <dbl> <chr> <chr> 
##  1 Owen L…    178   120 brown, grey light      blue            52   male  mascu…
##  2 Beru W…    165    75 brown       light      blue            47   fema… femin…
##  3 R5-D4       97    32 <NA>        white, red red             NA   none  mascu…
##  4 Biggs …    183    84 black       light      brown           24   male  mascu…
##  5 Obi-Wa…    182    77 auburn, wh… fair       blue-gray       57   male  mascu…
##  6 Anakin…    188    84 blond       fair       blue            41.9 male  mascu…
##  7 Wilhuf…    180    NA auburn, gr… fair       blue            64   male  mascu…
##  8 Chewba…    228   112 brown       unknown    blue           200   male  mascu…
##  9 Han So…    180    80 brown       fair       brown           29   male  mascu…
## 10 Greedo     173    74 <NA>        green      black           44   male  mascu…
## # … with 72 more rows, and 5 more variables: homeworld <chr>, species <chr>,
## #   films <list>, vehicles <list>, starships <list>

Otra opción a la hora de eliminar filas es eliminar las filas duplicadas (o filas con valores duplicados en alguna columna). Para ello deberemos aplicar la función distinct(), pasándole como argumentos el nombre de las variables que usaremos para quitar duplicados, por ejemplo, aquellos personajes con igual par de color de pelo y ojos.

# Eliminamos duplicados
starwars %>% # Eliminamos registros con igual par (color_pelo, color_ojos)
  distinct(hair_color, eye_color)

## # A tibble: 35 × 2
##    hair_color    eye_color
##    <chr>         <chr>    
##  1 blond         blue     
##  2 <NA>          yellow   
##  3 <NA>          red      
##  4 none          yellow   
##  5 brown         brown    
##  6 brown, grey   blue     
##  7 brown         blue     
##  8 black         brown    
##  9 auburn, white blue-gray
## 10 auburn, grey  blue     
## # … with 25 more rows

Si te fijas además nos ha extraído solo las dos columnas en base a las cuales hemos eliminado duplicados. Si queremos que nos mantenga toda la tabla deberemos explicitarlo con .keep_all = TRUE.

# Eliminamos duplicados
starwars %>% # Eliminamos registros con igual par (color_pelo, color_ojos)
  distinct(hair_color, eye_color,
           .keep_all = TRUE) # .keep_all = TRUE mantiene todas columnas

## # A tibble: 35 × 14
##    name    height  mass hair_color  skin_color eye_color birth_year sex   gender
##    <chr>    <int> <dbl> <chr>       <chr>      <chr>          <dbl> <chr> <chr> 
##  1 Luke S…    172    77 blond       fair       blue            19   male  mascu…
##  2 C-3PO      167    75 <NA>        gold       yellow         112   none  mascu…
##  3 R2-D2       96    32 <NA>        white, bl… red             33   none  mascu…
##  4 Darth …    202   136 none        white      yellow          41.9 male  mascu…
##  5 Leia O…    150    49 brown       light      brown           19   fema… femin…
##  6 Owen L…    178   120 brown, grey light      blue            52   male  mascu…
##  7 Beru W…    165    75 brown       light      blue            47   fema… femin…
##  8 Biggs …    183    84 black       light      brown           24   male  mascu…
##  9 Obi-Wa…    182    77 auburn, wh… fair       blue-gray       57   male  mascu…
## 10 Wilhuf…    180    NA auburn, gr… fair       blue            64   male  mascu…
## # … with 25 more rows, and 5 more variables: homeworld <chr>, species <chr>,
## #   films <list>, vehicles <list>, starships <list>
…
