Capítulo 16 Tidy vs messy data: daticos ordenados | Analizando datos, visualizando información, contando historias
…
Salvo la primera, el resto de columnas tienen como nombre los valores de una variable en sí misma (ingresos). Para ordenar los datos vamos a razonar de la misma manera solo que ahora, en lugar de indicarle el nombre de todas las columnas que queremos usar de entrada, vamos a indicarle de forma más corta la columna que NO queremos seleccionar.

# No necesitamos las comillas en el nombre de columnas salvo que tengan caracteres que no sean letras
relig_income %>% pivot_longer(-religion, names_to = "ingresos",
                              values_to = "frecuencia")

## # A tibble: 180 × 3
##    religion ingresos           frecuencia
##    <chr>    <chr>                   <dbl>
##  1 Agnostic <$10k                      27
##  2 Agnostic $10-20k                    34
##  3 Agnostic $20-30k                    60
##  4 Agnostic $30-40k                    81
##  5 Agnostic $40-50k                    76
##  6 Agnostic $50-75k                   137
##  7 Agnostic $75-100k                  122
##  8 Agnostic $100-150k                 109
##  9 Agnostic >150k                      84
## 10 Agnostic Don't know/refused         96
## # … with 170 more rows
…
