Capítulo 21 Profundizando tidyverse: encuestas electorales | Analizando datos, visualizando información, contando historias
…
encuestas_2021 <- html_table(tablas[[2]])
encuestas_2021

## # A tibble: 209 × 21
##    `Polling firm/Com… `Fieldwork date` `Sample size` Turnout ``     ``     ``   
##    <chr>              <chr>            <chr>         <chr>   <chr>  <chr>  <chr>
##  1 Polling firm/Comm… Fieldwork date   Sample size   Turnout ""     ""     ""   
##  2 ElectoPanel/Elect… 24–30 Dec        1,189         ?       "24.9… "23.9… "19.…
##  3 40dB/Prisa[16][17] 23–30 Dec        2,000         ?       "26.1… "23.5… "18.…
##  4 IMOP/El Confidenc… 20–30 Dec        1,315         ?       "25.2… "25.0… "18.…
##  5 SocioMétrica/El E… 20–30 Dec        3,000         ?       "25.5… "24.2… "17.…
##  6 PSOE[20]           27 Dec           ?             ?       "29.0" "22.0" "17.…
##  7 Sigma Dos/Antena … 26 Dec           ?             ?       "25.7… "28.8… "15.…
##  8 Sigma Dos/El Mund… 20–24 Dec        2,619         ?       "26.0… "27.4… "16.…
##  9 ElectoPanel/Elect… 17–23 Dec        1,299         ?       "25.3… "24.6… "19.…
## 10 KeyData/Público[2… 22 Dec           ?             67.1    "25.7… "26.4… "17.…
## # … with 199 more rows, and 14 more variables:  <chr>,  <chr>,  <chr>,  <chr>,
## #    <chr>, PNV <chr>,  <chr>,  <chr>,  <chr>,  <chr>,  <chr>, PRC <chr>,
## #   TE <chr>, Lead <chr>
…
encuestas_2021

## # A tibble: 209 × 21
##    casa   fechas muestra participacion PSOE  PP    Vox   UP    Cs    ERC   MP   
##    <chr>  <chr>  <chr>   <chr>         <chr> <chr> <chr> <chr> <chr> <chr> <chr>
##  1 Polli… Field… Sample… Turnout       ""    ""    ""    ""    ""    ""    ""   
##  2 Elect… 24–30… 1,189   ?             "24.… "23.… "19.… "11.… "3.2… "3.5… "2.7…
##  3 40dB/… 23–30… 2,000   ?             "26.… "23.… "18.… "11.… "3.6… "?13" "3.6…
##  4 IMOP/… 20–30… 1,315   ?             "25.… "25.… "18.… "12.… "2.8… "3.2… "2.7…
##  5 Socio… 20–30… 3,000   ?             "25.… "24.… "17.… "12.… "4.3… "2.8… "3.2…
##  6 PSOE[… 27 Dec ?       ?             "29.… "22.… "17.… "11.… "–"   "–"   "–"  
##  7 Sigma… 26 Dec ?       ?             "25.… "28.… "15.… "10.… "3.2… "3.0… "3.0…
##  8 Sigma… 20–24… 2,619   ?             "26.… "27.… "16.… "10.… "3.1… "3.0… "3.1…
##  9 Elect… 17–23… 1,299   ?             "25.… "24.… "19.… "11.… "3.2… "3.5… "2.7…
## 10 KeyDa… 22 Dec ?       67.1          "25.… "26.… "17.… "11.… "3.1… "3.4… "3.1…
## # … with 199 more rows, and 10 more variables: JxCat <chr>, PNV <chr>,
## #   EHBildu <chr>, CUP <chr>, CC <chr>, BNG <chr>, NA+ <chr>, PRC <chr>,
## #   EV <chr>, ventaja <chr>
…
encuestas_2021 <- encuestas_2021 %>% slice(-1)
encuestas_2021

## # A tibble: 208 × 21
##    casa   fechas muestra participacion PSOE  PP    Vox   UP    Cs    ERC   MP   
##    <chr>  <chr>  <chr>   <chr>         <chr> <chr> <chr> <chr> <chr> <chr> <chr>
##  1 Elect… 24–30… 1,189   ?             24.9… 23.9… 19.9… 11.8… 3.21  3.514 2.76 
##  2 40dB/… 23–30… 2,000   ?             26.1… 23.5… 18.3… 11.8… 3.62… ?13   3.63…
##  3 IMOP/… 20–30… 1,315   ?             25.2… 25.0… 18.6… 12.1… 2.81  3.213 2.73 
##  4 Socio… 20–30… 3,000   ?             25.5… 24.2… 17.7… 12.3… 4.33  2.812 3.25 
##  5 PSOE[… 27 Dec ?       ?             29.0  22.0  17.0  11.0  –     –     –    
##  6 Sigma… 26 Dec ?       ?             25.7… 28.8… 15.7… 10.6… 3.21  3.0?  3.06 
##  7 Sigma… 20–24… 2,619   ?             26.0… 27.4… 16.6… 10.9… 3.11  3.012 3.16 
##  8 Elect… 17–23… 1,299   ?             25.3… 24.6… 19.5… 11.4… 3.21  3.514 2.76 
##  9 KeyDa… 22 Dec ?       67.1          25.7… 26.4… 17.1… 11.1… 3.11  3.413 3.14 
## 10 DYM/H… 15–19… 1,012   ?             25.6… 27.6… 16.9… 10.6… 4.72… –     3.22…
## # … with 198 more rows, and 10 more variables: JxCat <chr>, PNV <chr>,
## #   EHBildu <chr>, CUP <chr>, CC <chr>, BNG <chr>, NA+ <chr>, PRC <chr>,
## #   EV <chr>, ventaja <chr>
…
Dado que queremos un solo dataset con las encuestas de ambos años, vamos a juntar ambas tablas con rbind() para tener una sola tabla encuestas.

encuestas <- rbind(encuestas_2022, encuestas_2021)

DT::datatable(encuestas, options = list(pageLength = 10),
              caption = "Encuestas de 2021 y 2022")

21.5 Convertir a numéricas

Si te fijas los valores de muchas variables son erróneos, como tamaño de la muestra o participación: son de tipo texto cuando deberían ser numéricas.

encuestas

## # A tibble: 219 × 22
##    casa   fechas muestra participacion PSOE  PP    Vox   UP    Cs    ERC   MP   
##    <chr>  <chr>  <chr>   <chr>         <chr> <chr> <chr> <chr> <chr> <chr> <chr>
##  1 DYM/H… 19–23… 1,008   ?             25.7… 26.9… 17.1… 11.6… 3.42… –     2.82…
##  2 KeyDa… 21 Jan ?       68.1          26.0… 25.6… 17.4… 11.5… 2.91  3.513 3.04 
##  3 Elect… 14–20… 1,190   ?             24.4… 22.9… 20.7… 12.7… 3.21  3.514 2.55 
##  4 Celes… 10–14… 1,100   ?             26.2… 27.2… 16.5… 11.0… 3.42  3.012 3.65 
##  5 InvyM… 10–14… ?       ?             27.3  27.9  16.5  10.9  1.3   –     3.0  
##  6 CIS[7… 3–14 … 3,777   ?             28.5… 21.5… 14.7… 13.1… 4.03  3.013 2.83 
##  7 IMOP/… 3–14 … 1,312   ?             26.4… 24.9… 17.9… 11.8… 2.61  3.414 2.53 
##  8 Elect… 7–13 … 1,317   ?             24.5… 23.3… 20.5… 12.4… 3.31  3.514 2.66 
##  9 Simpl… 3–13 … 1,039   63.0          24.6  24.3  18.7  11.1  2.5   –     2.3  
## 10 Elect… 31 De… 1,823   ?             24.9… 23.5… 20.2… 12.0… 3.21  3.514 2.65 
## # … with 209 more rows, and 11 more variables: JxCat <chr>, PNV <chr>,
## #   EHBildu <chr>, CUP <chr>, CC <chr>, BNG <chr>, NA+ <chr>, PRC <chr>,
## #   EV <chr>, ventaja <chr>, anno <dbl>
…
variable <- c("hola", "cama", "elefante", "cerrojo", "león", "gata")
gsub("a", "*", variable)

## [1] "hol*"     "c*m*"     "elef*nte" "cerrojo"  "león"     "g*t*"

Con esta función localizaremos las "," de muestra para sustituirlas por "" (sin nada), y lo mismo haremos con "?" en la variable participacion con los datos ausentes "?".

encuestas_depurado <-
  encuestas %>%
  # Quitamos "," como millares en números
  mutate(muestra = gsub("?", "", gsub(",", "", muestra)),
         participacion = gsub("?", NA, participacion))
encuestas_depurado

## # A tibble: 219 × 22
##    casa   fechas muestra participacion PSOE  PP    Vox   UP    Cs    ERC   MP   
##    <chr>  <chr>  <chr>   <chr>         <chr> <chr> <chr> <chr> <chr> <chr> <chr>
##  1 DYM/H… 19–23… 1008    <NA>          25.7… 26.9… 17.1… 11.6… 3.42… –     2.82…
##  2 KeyDa… 21 Jan ?       <NA>          26.0… 25.6… 17.4… 11.5… 2.91  3.513 3.04 
##  3 Elect… 14–20… 1190    <NA>          24.4… 22.9… 20.7… 12.7… 3.21  3.514 2.55 
##  4 Celes… 10–14… 1100    <NA>          26.2… 27.2… 16.5… 11.0… 3.42  3.012 3.65 
##  5 InvyM… 10–14… ?       <NA>          27.3  27.9  16.5  10.9  1.3   –     3.0  
##  6 CIS[7… 3–14 … 3777    <NA>          28.5… 21.5… 14.7… 13.1… 4.03  3.013 2.83 
##  7 IMOP/… 3–14 … 1312    <NA>          26.4… 24.9… 17.9… 11.8… 2.61  3.414 2.53 
##  8 Elect… 7–13 … 1317    <NA>          24.5… 23.3… 20.5… 12.4… 3.31  3.514 2.66 
##  9 Simpl… 3–13 … 1039    <NA>          24.6  24.3  18.7  11.1  2.5   –     2.3  
## 10 Elect… 31 De… 1823    <NA>          24.9… 23.5… 20.2… 12.0… 3.21  3.514 2.65 
## # … with 209 more rows, and 11 more variables: JxCat <chr>, PNV <chr>,
## #   EHBildu <chr>, CUP <chr>, CC <chr>, BNG <chr>, NA+ <chr>, PRC <chr>,
## #   EV <chr>, ventaja <chr>, anno <dbl>

Tras estos cambios, aunque muchas variables numéricas siguen siendo caracter, ya podemos aplicar la función as.numeric(), que aplicaremos a todas las variables menos casa y fechas, con mutate_at, indicándole con vars() primero las columnas a seleccionar (aquellas que no contengan la palabra casa ni fechas), y después la función a aplicar.

encuestas_depurado <-
  encuestas_depurado %>%
  mutate_at(vars(!contains(c("casa", "fechas"))), as.numeric)
encuestas_depurado

## # A tibble: 219 × 22
##    casa   fechas muestra participacion  PSOE    PP   Vox    UP    Cs   ERC    MP
##    <chr>  <chr>    <dbl>         <dbl> <dbl> <dbl> <dbl> <dbl> <dbl> <dbl> <dbl>
##  1 DYM/H… 19–23…    1008            NA  NA    NA    NA    NA   NA    NA    NA   
##  2 KeyDa… 21 Jan      NA            NA  26.0  25.6  17.5  11.5  2.91  3.51  3.04
##  3 Elect… 14–20…    1190            NA  24.5  23.0  20.8  12.7  3.21  3.51  2.55
##  4 Celes… 10–14…    1100            NA  26.2  27.2  16.6  11.0  3.42  3.01  3.65
##  5 InvyM… 10–14…      NA            NA  27.3  27.9  16.5  10.9  1.3  NA     3   
##  6 CIS[7… 3–14 …    3777            NA  28.5  21.6  14.8  13.1  4.03  3.01  2.83
##  7 IMOP/… 3–14 …    1312            NA  26.4  24.9  18.0  11.8  2.61  3.41  2.53
##  8 Elect… 7–13 …    1317            NA  24.6  23.4  20.6  12.4  3.31  3.51  2.66
##  9 Simpl… 3–13 …    1039            NA  24.6  24.3  18.7  11.1  2.5  NA     2.3 
## 10 Elect… 31 De…    1823            NA  25.0  23.6  20.3  12.0  3.21  3.51  2.65
## # … with 209 more rows, and 11 more variables: JxCat <dbl>, PNV <dbl>,
## #   EHBildu <dbl>, CUP <dbl>, CC <dbl>, BNG <dbl>, NA+ <dbl>, PRC <dbl>,
## #   EV <dbl>, ventaja <dbl>, anno <dbl>
…
En cada lugar de la lista vemos que tenemos dos fechas en la mayoría de casos: las pondremos en columnas fecha_inicio y fecha_inicial, devolviendo un tibble con map_dfr aplicado a la lista

fechas_intermedias <-
  map_dfr(fechas_intermedias,
          function(x) { tibble("fecha_inicio" = x[1],
                               "fecha_final" = x[2]) })
fechas_intermedias

## # A tibble: 219 × 2
##    fecha_inicio fecha_final
##    <chr>        <chr>      
##  1 19           23 Jan     
##  2 21 Jan       <NA>       
##  3 14           20 Jan     
##  4 10           14 Jan     
##  5 10           14 Jan     
##  6 3            14 Jan     
##  7 3            14 Jan     
##  8 7            13 Jan     
##  9 3            13 Jan     
## 10 31 Dec       6 Jan      
## # … with 209 more rows

Los registros donde fecha_final está ausente significa que toma el mismo valor que la fecha de inicio, y así lo modificaremos.

fechas_intermedias <-
  fechas_intermedias %>% 
  mutate(fecha_final = ifelse(is.na(fecha_final),
                              fecha_inicio, fecha_final))
fechas_intermedias

## # A tibble: 219 × 2
##    fecha_inicio fecha_final
##    <chr>        <chr>      
##  1 19           23 Jan     
##  2 21 Jan       21 Jan     
##  3 14           20 Jan     
##  4 10           14 Jan     
##  5 10           14 Jan     
##  6 3            14 Jan     
##  7 3            14 Jan     
##  8 7            13 Jan     
##  9 3            13 Jan     
## 10 31 Dec       6 Jan      
## # … with 209 more rows

Las fechas que no tenga mes en fecha_inicio, asumiremos que es el mismo mes que fecha_final: si solo hay números (dos o menos caracteres), obtenemos el mes de la fecha_final (últimos 3 caracteres) y lo pegamos al día.

fechas_intermedias <-
  fechas_intermedias %>% 
  mutate(fecha_inicio =
           ifelse(nchar(fecha_inicio) <= 2,
                  paste(fecha_inicio,
                        paste0(rev(rev(unlist(str_split(fecha_final, "")))[1:3]),
                               collapse = "")), fecha_inicio))
fechas_intermedias

## # A tibble: 219 × 2
##    fecha_inicio fecha_final
##    <chr>        <chr>      
##  1 19 Jan       23 Jan     
##  2 21 Jan       21 Jan     
##  3 14 Jan       20 Jan     
##  4 10 Jan       14 Jan     
##  5 10 Jan       14 Jan     
##  6 3 Jan        14 Jan     
##  7 3 Jan        14 Jan     
##  8 7 Jan        13 Jan     
##  9 3 Jan        13 Jan     
## 10 31 Dec       6 Jan      
## # … with 209 more rows

Esas fechas intermedias las vamos añadir como columnas y, pegándole el año, vamos a convertirlas en datos de tipo fecha. De todas las fechas nos vamos a quedar solo con la fecha_final (recolocando dicha columna tras el nombre de la casa encuestadora).

library(lubridate)
encuestas_depurado <-
  bind_cols(encuestas_depurado,
            fechas_intermedias) %>%
  mutate(fecha_inicio = dmy(paste(fecha_inicio, anno)),
         fecha_final = dmy(paste(fecha_final, anno))) %>%
  select(-c(fechas, anno, fecha_inicio)) %>%
  relocate(fecha_final, .after = casa)
encuestas_depurado

## # A tibble: 219 × 21
##    casa    fecha_final muestra participacion  PSOE    PP   Vox    UP    Cs   ERC
##    <chr>   <date>        <dbl>         <dbl> <dbl> <dbl> <dbl> <dbl> <dbl> <dbl>
##  1 DYM/He… 2022-01-23     1008            NA  NA    NA    NA    NA   NA    NA   
##  2 KeyDat… 2022-01-21       NA            NA  26.0  25.6  17.5  11.5  2.91  3.51
##  3 Electo… 2022-01-20     1190            NA  24.5  23.0  20.8  12.7  3.21  3.51
##  4 Celest… 2022-01-14     1100            NA  26.2  27.2  16.6  11.0  3.42  3.01
##  5 InvyMa… 2022-01-14       NA            NA  27.3  27.9  16.5  10.9  1.3  NA   
##  6 CIS[7]… 2022-01-14     3777            NA  28.5  21.6  14.8  13.1  4.03  3.01
##  7 IMOP/E… 2022-01-14     1312            NA  26.4  24.9  18.0  11.8  2.61  3.41
##  8 Electo… 2022-01-13     1317            NA  24.6  23.4  20.6  12.4  3.31  3.51
##  9 Simple… 2022-01-13     1039            NA  24.6  24.3  18.7  11.1  2.5  NA   
## 10 Electo… 2022-01-06     1823            NA  25.0  23.6  20.3  12.0  3.21  3.51
## # … with 209 more rows, and 11 more variables: MP <dbl>, JxCat <dbl>,
## #   PNV <dbl>, EHBildu <dbl>, CUP <dbl>, CC <dbl>, BNG <dbl>, NA+ <dbl>,
## #   PRC <dbl>, EV <dbl>, ventaja <dbl>
…
¿Cuáles son las encuestas más recientes?

encuestas_depurado %>% arrange(desc(fecha_final))

## # A tibble: 219 × 21
##    casa    fecha_final muestra participacion  PSOE    PP   Vox    UP    Cs   ERC
##    <chr>   <date>        <dbl>         <dbl> <dbl> <dbl> <dbl> <dbl> <dbl> <dbl>
##  1 DYM/HE… 2022-01-23     1008            NA  NA    NA    NA    NA   NA    NA   
##  2 KEYDAT… 2022-01-21       NA            NA  26.0  25.6  17.5  11.5  2.91  3.51
##  3 ELECTO… 2022-01-20     1190            NA  24.5  23.0  20.8  12.7  3.21  3.51
##  4 CELEST… 2022-01-14     1100            NA  26.2  27.2  16.6  11.0  3.42  3.01
##  5 INVYMA… 2022-01-14       NA            NA  27.3  27.9  16.5  10.9  1.3  NA   
##  6 CIS     2022-01-14     3777            NA  28.5  21.6  14.8  13.1  4.03  3.01
##  7 IMOP/E… 2022-01-14     1312            NA  26.4  24.9  18.0  11.8  2.61  3.41
##  8 ELECTO… 2022-01-13     1317            NA  24.6  23.4  20.6  12.4  3.31  3.51
##  9 SIMPLE… 2022-01-13     1039            NA  24.6  24.3  18.7  11.1  2.5  NA   
## 10 ELECTO… 2022-01-06     1823            NA  25.0  23.6  20.3  12.0  3.21  3.51
## # … with 209 more rows, and 11 more variables: MP <dbl>, JxCat <dbl>,
## #   PNV <dbl>, EHBildu <dbl>, CUP <dbl>, CC <dbl>, BNG <dbl>, NA+ <dbl>,
## #   PRC <dbl>, EV <dbl>, ventaja <dbl>
…
¿Cuál es el promedio de las encuestas del PSOE y PP por casa encuestadora?

encuestas_depurado %>%
  select(-fecha_final) %>%
  group_by(casa) %>%
  summarise(media_PSOE = mean(PSOE), media_PP = mean(PP)) %>%
  ungroup()

## # A tibble: 28 × 3
##    casa                            media_PSOE media_PP
##    <chr>                                <dbl>    <dbl>
##  1 40DB/PRISA                            NA       NA  
##  2 ÁGORA INTEGRAL/CANARIAS AHORA         25.8     25.4
##  3 CELESTE-TEL/ONDA CERO                 26.3     27.8
##  4 CIS                                   29.2     21.3
##  5 CIS (SOCIOMÉTRICA)                    27.3     22.0
##  6 DATA10/OKDIARIO                       25.0     29.2
##  7 DEMOSCOPIA Y SERVICIOS/ESDIARIO       25.3     25.9
##  8 DYM/HENNEO                            NA       NA  
##  9 ELECTOPANEL/ELECTOMANÍA               26.2     25.7
## 10 GAD3/ABC                              25.5     29.8
## # … with 18 more rows
…
